<svg width="17" height="17" viewBox="0 0 17 17" fill="none" xmlns="http://www.w3.org/2000/svg">
<path d="M8.54867 11.1C7.81534 11.1 7.22867 10.8967 6.78867 10.49C6.35534 10.0833 6.12534 9.52 6.09867 8.8L6.08867 8.4L6.09867 8C6.12534 7.28 6.35534 6.71667 6.78867 6.31C7.22867 5.90333 7.81534 5.7 8.54867 5.7C9.07534 5.7 9.51867 5.79333 9.87867 5.98C10.2453 6.16667 10.5153 6.39667 10.6887 6.67C10.8687 6.93667 10.9653 7.19333 10.9787 7.44C10.9853 7.50667 10.962 7.56333 10.9087 7.61C10.862 7.65667 10.8053 7.68 10.7387 7.68H9.84867C9.77534 7.68 9.72201 7.66667 9.68867 7.64C9.65534 7.60667 9.62201 7.55 9.58867 7.47C9.48867 7.21667 9.35534 7.03333 9.18867 6.92C9.02867 6.80667 8.82201 6.75 8.56867 6.75C8.22867 6.75 7.96201 6.85667 7.76867 7.07C7.58201 7.28333 7.48201 7.61 7.46867 8.05L7.45867 8.42L7.46867 8.75C7.50867 9.61667 7.87534 10.05 8.56867 10.05C8.82867 10.05 9.03867 9.99667 9.19867 9.89C9.35867 9.77667 9.48867 9.59 9.58867 9.33C9.61534 9.25667 9.64534 9.20333 9.67867 9.17C9.71867 9.13667 9.77534 9.12 9.84867 9.12H10.7387C10.8053 9.12 10.862 9.14333 10.9087 9.19C10.962 9.23667 10.9853 9.29333 10.9787 9.36C10.9653 9.59333 10.872 9.84667 10.6987 10.12C10.5253 10.3867 10.2587 10.6167 9.89867 10.81C9.53867 11.0033 9.08867 11.1 8.54867 11.1Z" fill="#6C6C6C"/>
<circle cx="8.5" cy="8.5" r="7.75" stroke="#6C6C6C" stroke-width="1.5"/>
</svg>
