<svg width="141" height="31" viewBox="0 0 141 31" fill="none" xmlns="http://www.w3.org/2000/svg">
<path fill-rule="evenodd" clip-rule="evenodd" d="M110.956 6.30646C112.683 6.30646 114.083 4.89472 114.083 3.15323C114.083 1.41175 112.683 0 110.956 0C109.228 0 107.828 1.41175 107.828 3.15323C107.828 4.89472 109.228 6.30646 110.956 6.30646ZM79.9917 9.67802H85.7189C86.1521 9.67802 86.45 10.1421 86.2469 10.538L77.3785 28.8841L76.5797 30.5357C76.4849 30.7406 76.2819 30.877 76.0518 30.877H71.34L70.8525 29.8805L70.3652 28.8841L61.4832 10.538C61.2801 10.1421 61.578 9.67802 62.0113 9.67802H67.7384C67.9551 9.67802 68.1717 9.81452 68.2665 10.0193L73.8718 21.6221L79.4637 10.0193C79.5584 9.81452 79.7616 9.67802 79.9917 9.67802ZM108.438 9.67802H113.529C113.854 9.67802 114.111 9.93737 114.125 10.265V30.2764C114.125 30.604 113.854 30.877 113.529 30.877H108.438C108.113 30.877 107.842 30.604 107.842 30.2764V10.2786C107.842 9.95102 108.113 9.67802 108.438 9.67802ZM51.9649 9.67802H57.0558C57.3807 9.67802 57.6515 9.93737 57.665 10.265V30.2764C57.665 30.604 57.3942 30.877 57.0692 30.877H51.9784C51.6535 30.877 51.3827 30.604 51.3827 30.2764V29.4984C49.8527 30.4401 48.2008 30.918 46.4273 30.918C43.6245 30.918 41.2823 29.8942 39.3867 27.8603C37.4911 25.8127 36.5434 23.3556 36.5434 20.4618C36.5434 17.5679 37.4911 15.0972 39.3867 13.0497C41.2823 10.9884 43.6245 9.96467 46.4273 9.96467C48.1738 9.96467 49.8256 10.4561 51.3692 11.4389V10.2786C51.3692 9.95102 51.64 9.67802 51.9649 9.67802ZM46.8741 25.3077C48.1738 25.3077 49.2435 24.8573 50.0964 23.9562C50.9495 23.0553 51.3692 21.9497 51.3827 20.6392C51.3827 19.3288 50.9495 18.2095 50.0964 17.2949C49.2299 16.3803 48.1603 15.9162 46.8875 15.9162C45.6149 15.9162 44.5588 16.3667 43.7193 17.2813C42.8799 18.1822 42.4601 19.3016 42.4601 20.6256C42.4601 21.9497 42.8664 23.0553 43.6922 23.9562C44.5046 24.8573 45.5742 25.3077 46.8741 25.3077ZM102.44 9.67811H102.183C99.4887 9.69175 97.7827 10.1013 96.2393 11.0022V10.2651C96.2393 9.93746 95.9685 9.66445 95.6436 9.66445H90.5527C90.2277 9.66445 89.957 9.93746 89.957 10.2651V30.2628C89.957 30.5904 90.2277 30.8634 90.5527 30.8634H95.6436C95.9685 30.8634 96.2393 30.5904 96.2393 30.2628V18.2505V18.2369C96.2393 15.3024 100.729 15.4475 102.087 15.4913L102.142 15.4932C102.142 15.4932 102.264 15.4932 102.427 15.5068C102.765 15.5068 103.036 15.2475 103.036 14.9062V10.2787C103.05 9.93746 102.779 9.67811 102.44 9.67811ZM30.6399 11.6029C30.7482 11.7394 30.8565 11.8758 30.9513 12.0123C31.8855 13.4047 32.3594 15.4659 32.3728 18.2096V27.9833V27.9969V30.3857C32.3728 30.7133 32.102 30.9863 31.7771 30.9863H29.2588H29.2317H29.2046H26.6457C26.3208 30.9863 26.05 30.7133 26.05 30.3857V27.9833V27.9696V18.1141C26.05 16.7627 25.8197 15.8071 25.3595 15.2611C24.8856 14.715 24.1815 14.442 23.2338 14.442C22.0558 14.442 21.1215 14.8516 20.4176 15.6706C19.727 16.4897 19.375 17.6363 19.375 19.0968V27.9833V27.9969V30.3857C19.375 30.7133 19.1042 30.9863 18.7793 30.9863H16.261H16.2339H16.2068H13.6478C13.3229 30.9863 13.0521 30.7133 13.0521 30.3857V27.9833V27.9696V18.1141C13.0521 16.7627 12.8219 15.8071 12.3615 15.2611L12.348 15.2475C12.1178 14.9745 11.82 14.7697 11.4679 14.6332C11.1159 14.4967 10.6962 14.4284 10.2223 14.4284C9.04437 14.4284 8.11014 14.8379 7.40609 15.6569C7.25716 15.8481 7.12176 16.0392 6.99991 16.2575C6.95929 16.3258 6.93221 16.3804 6.90514 16.435C6.79682 16.6398 6.70204 16.8446 6.63434 17.0766C6.61165 17.1224 6.59847 17.1776 6.58684 17.2265L6.58018 17.254C6.51249 17.4997 6.45833 17.7592 6.41772 18.0322V18.0458V30.0581V30.3994C6.41772 30.727 6.14692 31 5.82198 31H3.19531H0.595738C0.270789 31 0 30.727 0 30.3994V10.0603C0 9.73272 0.270789 9.45971 0.595738 9.44606H0.704053H0.731132H5.83551C6.16047 9.44606 6.43125 9.71906 6.43125 10.0467V10.7701C7.7175 9.67812 9.82966 9.18671 11.9689 9.18671C14.5684 9.18671 17.1004 10.4971 17.8585 11.9031C18.7657 11.1387 19.6186 10.579 20.6206 10.1832C21.8662 9.58256 23.4639 9.2959 25.0751 9.2959C25.9687 9.2959 26.8352 9.45971 27.6205 9.71906C28.812 10.033 29.8003 10.6336 30.5722 11.5073C30.5857 11.5209 30.5959 11.538 30.6059 11.555C30.6161 11.5721 30.6265 11.5892 30.6399 11.6029ZM140.581 29.2253L130.886 18.7282L139.537 10.5653C139.808 10.3059 139.958 10.0602 139.958 9.80089C139.958 9.52788 139.876 9.29582 139.7 9.11837C139.537 8.95456 139.308 8.85902 139.023 8.85902H133.919C133.662 8.85902 133.459 8.88632 133.295 8.94092C133.133 8.99552 132.958 9.10471 132.796 9.24122C132.712 9.3082 132.641 9.36832 132.579 9.41974C132.49 9.49403 132.423 9.55022 132.375 9.58248L125.321 16.3121V1.51513C125.321 1.18751 125.05 0.914508 124.725 0.914508H119.635C119.31 0.914508 119.039 1.18751 119.039 1.51513V30.2628C119.039 30.5904 119.31 30.8634 119.635 30.8634H120.907H124.306H124.725C125.05 30.8634 125.321 30.5904 125.321 30.2628V21.6357L133.337 30.14C133.608 30.4266 133.851 30.6177 134.027 30.7133C134.217 30.8087 134.501 30.8634 134.894 30.8634H140.08C140.337 30.8634 140.553 30.7814 140.729 30.604C140.918 30.4403 141 30.2081 141 29.9215C141 29.7441 140.851 29.5119 140.581 29.2253ZM54.7538 6.11535H40.4155C38.6825 6.11535 37.2744 4.83222 37.2744 3.24878C37.2744 1.66533 38.6825 0.382201 40.4155 0.382201H54.7538C56.4869 0.382201 57.895 1.66533 57.895 3.24878C57.895 4.83222 56.4869 6.11535 54.7538 6.11535Z" fill="#1E1A20"/>
</svg>
